<?xml version="1.0" encoding="UTF-8"?>
<svg width="27px" height="27px" viewBox="0 0 27 27" version="1.1" xmlns="http://www.w3.org/2000/svg" xmlns:xlink="http://www.w3.org/1999/xlink">
    <title>mdi:progress-upload</title>
    <g id="TUT-paziente" stroke="none" stroke-width="1" fill="none" fill-rule="evenodd">
        <g id="3-Lista-Documenti" transform="translate(-1665.000000, -210.000000)">
            <g id="mdi:progress-upload" transform="translate(1665.000000, 210.000000)">
                <rect id="ViewBox" x="0" y="0" width="27" height="27"></rect>
                <path d="M14.6237681,2 C20.0767748,2.54131197 24.4230402,6.86029044 24.9418252,12.3309965 C25.2486658,15.3680698 24.3331657,18.4022914 22.3973696,20.7640289 C20.4615735,23.1257663 17.6646164,24.6208695 14.6237681,24.9193791 L14.6237681,22.6159239 C18.8201623,22.120681 22.1173291,18.7921883 22.6476427,14.5998998 C22.9492549,12.1742231 22.2729676,9.72828561 20.7678382,7.80118522 C19.2627088,5.87408482 17.0522893,4.62401207 14.6237681,4.32648973 L14.6237681,2 M12.318057,2.03455183 L12.318057,4.33800701 C10.6694736,4.56835253 9.11311866,5.23635453 7.82192046,6.27290936 L6.17333704,4.56835253 C7.92188029,3.12891308 10.0622821,2.24630954 12.318057,2.03455183 M4.54781073,6.19228843 L6.19639415,7.83925889 C5.1749458,9.14036639 4.52197989,10.6916319 4.30571107,12.3309965 L2,12.3309965 C2.23057111,10.0736104 3.09521276,7.94291437 4.54781073,6.19228843 M2.01152856,14.6344517 L4.31723963,14.6344517 C4.52475362,16.2699049 5.18188128,17.8247371 6.19639415,19.1261893 L4.55933929,20.7731597 C3.1271212,19.0200546 2.2412617,16.8856603 2.01152856,14.6344517 M7.82192046,20.8192288 C9.12464721,21.8327491 10.6810022,22.4892339 12.318057,22.6965448 L12.318057,25 C10.0584602,24.7581372 7.9141489,23.8482724 6.17333704,22.3970956 L7.82192046,20.8192288 M13.4709126,8.29994992 L8.28306267,13.4827241 L12.318057,13.4827241 L12.318057,18.0896345 L14.6237681,18.0896345 L14.6237681,13.4827241 L18.6587625,13.4827241 L13.4709126,8.29994992 Z" id="Shape" fill="#FFFFFF" fill-rule="nonzero"></path>
            </g>
        </g>
    </g>
</svg>